































					 		s

					
				l	 		
	      
	  				 		e    
	




	
					t
			n          		s		
		     e     f  a 		 n       				

		   	 d   		e   s


			 n    	a
			   u   g  		e 	s


		N o 	
		   u s   		m e 		n é . e . s
				s o m 	 	s  
			e n t r e  1 9 6 9  
			   e t   2 0 2 4 ,  
			  dans l’Est 
			    parisien.

