































					 		s

					
				l	 		
	      
	  				 		e    
	




	
					t
			n          		s		
		e  	   f  a 		 n       				

		   	 d   		e   s


			 n    	a
			   u   g  		e 	s


		N o 	
		   u s   		m e 		
						n é . e . s
				s o m 	 s  
			e n t r e  1 9 6 9  e t  
					 2 0 2 4 ,  
				d a n s 
				   l ’ E s t  
				   p a r i 
			  	      s i e n .
				D a n s 
				   l e 1 2 e , 
				  l e  1 3e
				a r r o n d i
					s se m e n t 
					  d e 
					    P a r i s

				o  u   
					d e 
			  l ’ a u
						 t r e 
				  c  ô t é 
			   d u       	     h é ri qu  e
			        p é r i p 
	
				à I v r y , 
			G e n t i l l y   o u  
		      C h a r e n t o n 
				- l e -
				 p o n t . 
			  N o u s  o b 
				  s e r v i o n s
				l e s      o n n e s
				     c o l 
				  d e  f u m é e s
				    b l a n c h e s ,
				parfois grises