































					 		s



					
				l	 		
	      




	  				 		e    
	




	
					t




			n          		s		
		e  	   f  a 		 n       				

		   	 d   		e   s





			 n    	a
			   u   g  		e 	s


		N o 	
		      u   s   		m e 		
						n é . e . s
				s o m 	 s  
	
			e n t r e  1 9 6 9  e t 
				 
					 2 0 2 4 ,  
				
			d a n s 
				   l ’ E s t  
				  

				 p a r i 
			 


						s i e n .
				D   a   n   s  
				  
					 l e 1 2   e  , 
				  l e  1   3 e 
				a r r   o   n   d  i
	
					s  s  e   m   e   n   t 
					  d e
    
					    P a  r   i  s

				o  u   
					d e 
			  l ’ a u
						 t r e 
				  c  ô t é 
			   d u       	     h    é r i   q    u  e
			        p é r i p 
	
				 à   I   v   r   y   , 
			G e

				 n t i l l y   o u  
		      C
				
				 h a   r   e   n   t    o n 
				- l e -
			  	  p   o 
						  n   t   .  
			    N   o   u   s      o   b   
				  s   e   r   v    i  o n s
				l e s        o n n e s
				     c o l 
				  d e      
					f  u   m é e s
				 	 b  l   a   n   c
						   h   e  s,
			   p    a   r   
					f o i s  
						g r i
						      s e s
				   s o r t i r 

				  d e s		 i    n  
								 é   e  s
					 c h e m
				                 f  	e n ê t r e s
			    d
					 e p u i s  l e s   
				  d e     l   a  
  
					       m  a   i   s   o  n ,

			l e s   v i t r e s  
						     d e 
					  	o i t u r e
				l  a     v 
				
					o u   d e s  
						 t r  a n  s   p    
					 o    r    t s
				 e n   
					c o  m   m   u      	 n .  

			 S   o   u   s       l  e       c   i   e  l   
				        b   l   e   u   , 
				 s  o     u   s     l   a     p l    
						 u i   e,
		    d e   j   o   u r   c o m      m e   
			        d e      n  u      i t .             
							 p a r t s
					l  e   s       d   é    
				C       ’   é   t   a   i   t  
					   e n   v a c a n c e s , 
				 		l e   
							r   e   t  
							 	   o u r 
			          o u
				  	à  l   a   m a i s o n , 
 		l  	 e  p   é   r   i    	p    h    
							é r i q u e
			                l e s   
					 e   t			b o u c h o n s 
				d e   l a   p o r t e
   
					     	d ’ I v r y 
			e t 			  d u   p o n t   
					d e   		 l a   
				          		E 5 0.
			     Q u a	 n d   
						   	n o u s     é t i o n s  
				p l u s  		p	 e t i t . e . s 
			  		 n	 o u s   
							p e	  n s i o  n s
					 q  u   e    c ’ é t a i t   
				l  à 
 					q u ’ é t  a i e n t   
					f a b r i q u é s
					  l e  		s   n u a g e s . 
		      Q				 u a n d   
						 	
		n o u s   a v o n s   
				g r a n d	 i t 
				   	e t   d é c o u 	v e r t 
					    l e   	r é c h a u f 
						f e 	m e n		 t  
				           c  l i m a 
							t i q u 	e ,
					    l a   p  o  
							l l u  t  i   o   n  
 			l	 e    s    g a z   à  
				  	e f f  

				e t   d e   s  e  r   r e , 
				n  o 	u s   a v   o     n      s  
						i m    a   g   i   n  é
		           q  	 u   e    t  o   u  t   v e n a i t   
						 	 d  e    l  à .
	
			 N	 o u s   	p a s   s e	 r e i n . e . s .
n		 ’ é t i	    o  n   s   
			 M 	
				a i n t e n a n t 
		  n   o   u   s   n ’ y  
		f a    i   s  o n s   p		l u s   t r o 			p  
					   a t    t   e   n   t  i o n,
				p	 o u r   n e	   p a s  
						 i m a g i n e r
			   t o u t   c  e 	   q u	 i   
					p    o u r r 	a i t	
						   s e   c  a c h e  r 
						 s     	o   u    s   
	c	   e t  	  
				é    p         a   i 				  s    	
						n   u   a   g    e .   

					A u j o	 u r d ’ h u i 
				   n  o u 	s   a v o n s   
						a p p r i s
				    q u e   l e   
	a					n u  a		 g  e
				  l l	 a i t  
					     s ' e s t 		o m p e r
					 e t   s ' a r	 r 	ê t e 	r 
	d			 é f i n i 
						t i v e 	m e n t . 

					A  u	  	
						 r e v o i r
			f u	 m 	é e   
					p o r 	t e u s e  
					   d ’ i   m   a g 	i n a 	i r	 e .
			 U   		n    d  			é    p a r t 
				   à   l a   r e t r 	a i 	t e
					 à      5 5      		a n s . 

				    F	 o y e r   	
				b	 r	  û	 l	    a    n  	t 
					a	 u   c 		o e u	 r
				  d e   l a    b a	 n l	 i e u e   
								r   o   u   g   e     .
 



































	
						8
					      88
					    888
					    88
					    88
					      8	
					       8
						8  
	-Quand j’était jeune ado, 13/14 ans,     88
	je me repérais super mal dans Paris,      88
	voir pas du tout.    			   88
	Je voyais le plan de tête  		   888
	mais il n’y avait pas transpositions.	    888
	 	Et je n’avais pas de 4G. 	     888
	J’étais au Jardin des Plantes,		     88
	et je voulais rentrer comme d’habitude       88
	en prenant le bus 24.			     8
	Sauf que là, la je n’avais plus d’argent    88
	et mon ticket s’était plié dans ma poche   88
	le chauffeur de bus m’a engueulé.	    88
	Ça m’a tellement énervé,                    88
	je suis descendu du bus			   88
	et je me suis promis 			  88