

























































                                        			il y a 2 ans, 
				Didier Durand déclarait 
   			"Que des ordures..."

				***
 	    		   ***
         ***