






































								il y a 2 ans, 
						Didier Durand déclarait 
   							"Que des ordures..."
					
					   		  	 ***
 	     			         		 ***
                   		 			   ***


					"Suis-je le seul à voir ça ?"
				Les horribles cheminées qui fument
					  24h/24 et 7j/7 à Paris ! !!? 
					***
  				Ça ne devrait pas être en ville, 
			ça devrait être loin avant.

     		 	 	      ***
           			**
        			    ***

  	    Pour Jean-Luc Antoine
	il y a 5 mois, c'est:

"Une très belle usine qui a fêté ses 50 ans"

    ***